[ {
  "uid" : "4774282acd18ce79",
  "name" : "Incorrect User",
  "time" : {
    "start" : 1556054261142,
    "stop" : 1556054279248,
    "duration" : 18106
  },
  "status" : "passed",
  "severity" : "normal"
}, {
  "uid" : "5f870f901c3e46a9",
  "name" : "User field not filled",
  "time" : {
    "start" : 1556054295882,
    "stop" : 1556054310208,
    "duration" : 14326
  },
  "status" : "passed",
  "severity" : "normal"
}, {
  "uid" : "f938448d4a5c900c",
  "name" : "Incorrect Password",
  "time" : {
    "start" : 1556054279338,
    "stop" : 1556054295880,
    "duration" : 16542
  },
  "status" : "passed",
  "severity" : "normal"
}, {
  "uid" : "db39dee42daef1a0",
  "name" : "Login successfull",
  "time" : {
    "start" : 1556054217366,
    "stop" : 1556054260374,
    "duration" : 43008
  },
  "status" : "passed",
  "severity" : "normal"
}, {
  "uid" : "33d9f7464a14bde9",
  "name" : "Logout successfull",
  "time" : {
    "start" : 1556054325381,
    "stop" : 1556054342372,
    "duration" : 16991
  },
  "status" : "passed",
  "severity" : "normal"
}, {
  "uid" : "8155c59850ac8f41",
  "name" : "Password field not filled",
  "time" : {
    "start" : 1556054310242,
    "stop" : 1556054325378,
    "duration" : 15136
  },
  "status" : "passed",
  "severity" : "normal"
} ]